02_exploreBiasGenes
…
eh_genes <- as_granges(eh_genes)
bsseq_dmrs$bsseq_rank <- bsseq_dmrs$rank
bsseq_dmrs_filt$bsseq_rank <- bsseq_dmrs_filt$rank

Analyses

find_overlaps(as_granges(bsseq_dmrs), eh_genes) %>% data.frame() %>% group_by(bsseq_rank) %>% summarise(n_genes =n())

# A tibble: 50,675 × 2
   bsseq_rank n_genes
        <int>   <int>
 1          1       1
 2          2       2
 3          3       1
 4          4       1
 5          5       1
 6          6       1
 7          7       1
 8          8       1
 9          9       1
10         10       1
# ℹ 50,665 more rows
…
find_overlaps(as_granges(bsseq_dmrs), eh_genes) %>% data.frame() %>% group_by(symbol) %>% summarise(n_dmr =n())

# A tibble: 15,173 × 2
   symbol  n_dmr
   <chr>   <int>
 1 A2M         1
 2 A4GALT      4
 3 AAAS        2
 4 AACS        2
 5 AADACL4     1
 6 AAED1       1
 7 AAGAB       1
 8 AAK1       22
 9 AAMDC       1
10 AARS        1
# ℹ 15,163 more rows

find_overlaps(as_granges(bsseq_dmrs), eh_genes) %>% data.frame() %>% group_by(symbol) %>% summarise(n_dmr =n()) %>%
  ungroup() %>% group_by(n_dmr) %>% summarise(n())

# A tibble: 60 × 2
   n_dmr `n()`
   <int> <int>
 1     1  6115
 2     2  2747
 3     3  1696
 4     4  1151
 5     5   778
 6     6   511
 7     7   367
 8     8   299
 9     9   263
10    10   187
# ℹ 50 more rows
…
cg_per_bin <- cg_per_bin %>% ungroup() %>% data.frame()

eh_genes <- eh_genes %>% mutate(num_cg = cg_per_bin[match(.$num, cg_per_bin$num), "n_region"])
eh_genes[is.na(eh_genes)] <- 0

eh_genes %>% data.frame() %>% mutate(has_dmr = overlap_gene_dmr[match(.$gene, overlap_gene_dmr$gene), "gene"], 
                                     has_dmr = ifelse(!is.na(has_dmr), TRUE, FALSE)) %>% group_by(num_cg) %>% 
  group_by(num_cg, has_dmr) %>% summarise(num_per_dmr = n()) %>% group_by(num_cg) %>% mutate(prop_dmr = num_per_dmr/sum(num_per_dmr)) %>% filter(has_dmr == TRUE)

`summarise()` has grouped output by 'num_cg'. You can override using the
`.groups` argument.

# A tibble: 3,045 × 4
# Groups:   num_cg [3,045]
   num_cg has_dmr num_per_dmr prop_dmr
    <dbl> <lgl>         <int>    <dbl>
 1      0 TRUE             43   0.0128
 2      1 TRUE            121   0.0370
 3      2 TRUE            102   0.0384
 4      3 TRUE             67   0.0328
 5      4 TRUE             69   0.0431
 6      5 TRUE             54   0.0409
 7      6 TRUE             61   0.0507
 8      7 TRUE             45   0.0412
 9      8 TRUE             41   0.0456
10      9 TRUE             33   0.0409
# ℹ 3,035 more rows
…
biomart_genes %>% mutate(width = end - start + 1, density = num_cg/width) %>% group_by(density) %>% summarise(n_match = n())

# A tibble: 36,556 × 2
    density n_match
      <dbl>   <int>
 1 0           2959
 2 0.000597       1
 3 0.000624       1
 4 0.000693       1
 5 0.000786       1
 6 0.000795       1
 7 0.000839       1
 8 0.000933       1
 9 0.000971       1
10 0.000973       1
# ℹ 36,546 more rows
…
