03a_developGeneSetTest
…
  mutate(bin_group = rep(1:ceiling(nrow(biomart_genes)/100), each = 100)[1:nrow(biomart_genes)]) %>% 
  group_by(bin_group) %>%
  mutate(num_cg_bin_group = mean(num_cg)) %>%
  group_by(num_cg_bin_group) %>%
    mutate(num_bins_group_same_cg = dplyr::n()) %>%
    group_by(num_cg_bin_group, has_dmr) %>%
    mutate(num_per_dmr = dplyr::n(), prop = dplyr::n()/num_bins_group_same_cg) %>%
    distinct(num_cg_bin_group, num_bins_group_same_cg, num_per_dmr, prop, has_dmr) %>%
    group_by(num_cg_bin_group) %>%
    .[order(.$num_cg_bin_group),] %>%
    mutate(prop = ifelse(has_dmr == FALSE, 0, prop)) %>%
    mutate(num = dplyr::n()) %>%
    mutate(has_dmr = ifelse(num == 1, TRUE, has_dmr)) %>% filter(has_dmr == TRUE)

# A tibble: 357 × 6
# Groups:   num_cg_bin_group [357]
   num_cg_bin_group num_bins_group_same_cg num_per_dmr    prop has_dmr   num
              <dbl>                  <int>       <int>   <dbl> <lgl>   <int>
 1             0                      2900          12 0.00414 TRUE        2
 2             0.41                    100           2 0.02    TRUE        2
 3             1                      2800          41 0.0146  TRUE        2
 4             1.3                     100           3 0.03    TRUE        2
 5             2                      2300          20 0.00870 TRUE        2
 6             2.54                    100           5 0.05    TRUE        2
 7             3                      1700          22 0.0129  TRUE        2
 8             3.11                    100           4 0.04    TRUE        2
 9             4                      1400          26 0.0186  TRUE        2
10             4.77                    100           2 0.02    TRUE        2
# ℹ 347 more rows
…
